{
  "statuses": {
    "queued": "queued",
    "working": "working",
    "complete": "complete",
    "failed": "failed"
  },
  "templates": [
    "test_template",
    "test_second_template"
  ],
  "checkStatusInterval": 3000,
  "icons": {
    "queued": "send",
    "working": "access_time",
    "complete": "check",
    "failed": "close"
  }
}